{
  "project_info": {
    "project_number": "149236511211",
    "project_id": "supercompanytestapp",
    "storage_bucket": "supercompanytestapp.appspot.com"
  },
  "client": [
    {
      "client_info": {
        "mobilesdk_app_id": "1:149236511211:android:036e0ba560fbe59083a9ae",
        "android_client_info": {
          "package_name": "io.supercompany.testapp"
        }
      },
      "oauth_client": [
        {
          "client_id": "149236511211-t8jpp930cqcvcu0oddnvtg54e333892b.apps.googleusercontent.com",
          "client_type": 3
        }
      ],
      "api_key": [
        {
          "current_key": "AIzaSyATRLkaZ58vTD4bAmZ84EqKx7C0u_nGQ1g"
        }
      ],
      "services": {
        "appinvite_service": {
          "other_platform_oauth_client": [
            {
              "client_id": "149236511211-t8jpp930cqcvcu0oddnvtg54e333892b.apps.googleusercontent.com",
              "client_type": 3
            },
            {
              "client_id": "149236511211-vqcqv9pdtn0ue5416ci2987ngh470kl6.apps.googleusercontent.com",
              "client_type": 2,
              "ios_info": {
                "bundle_id": "io.supercompany.testapp"
              }
            }
          ]
        }
      }
    }
  ],
  "configuration_version": "1"
}